Traffic-Accidents-Singapore
…
# Create sparklines data for vehicles and non-vehicles
sparklines_vehicles <- create_sparkline_data(df_vehicles)
sparklines_non_vehicles <- create_sparkline_data(df_non_vehicles)

# Print the exact sparkline values for verification
unnested_sparklines_vehicles <- sparklines_vehicles |>
  unnest(cols = c(Sparkline, OriginalValues))
print(unnested_sparklines_vehicles)

# A tibble: 88 × 7
   Category                Sparkline   Min   Max Start   End OriginalValues
   <chr>                       <dbl> <int> <int> <int> <int>          <int>
 1 Driving Under Influence     0.569    11   164    98   115             98
 2 Driving Under Influence     0.869    11   164    98   115            144
 3 Driving Under Influence     0.582    11   164    98   115            100
 4 Driving Under Influence     0.895    11   164    98   115            148
 5 Driving Under Influence     1        11   164    98   115            164
 6 Driving Under Influence     0        11   164    98   115             11
 7 Driving Under Influence     0.131    11   164    98   115             31
 8 Driving Under Influence     0.346    11   164    98   115             64
 9 Driving Under Influence     0.601    11   164    98   115            103
10 Driving Under Influence     0.706    11   164    98   115            119
# ℹ 78 more rows

unnested_sparklines_non_vehicles <- sparklines_non_vehicles |>
  unnest(cols = c(Sparkline, OriginalValues))
print(unnested_sparklines_non_vehicles)

# A tibble: 44 × 7
   Category                     Sparkline   Min   Max Start   End OriginalValues
   <chr>                            <dbl> <int> <int> <int> <int>          <int>
 1 Other Causes Of Accidents A…    0.0886    55   134    62   128             62
 2 Other Causes Of Accidents A…    0         55   134    62   128             55
 3 Other Causes Of Accidents A…    0.0886    55   134    62   128             62
 4 Other Causes Of Accidents A…    0.582     55   134    62   128            101
 5 Other Causes Of Accidents A…    0.304     55   134    62   128             79
 6 Other Causes Of Accidents A…    0.392     55   134    62   128             86
 7 Other Causes Of Accidents A…    0.658     55   134    62   128            107
 8 Other Causes Of Accidents A…    0.835     55   134    62   128            121
 9 Other Causes Of Accidents A…    1         55   134    62   128            134
10 Other Causes Of Accidents A…    0.848     55   134    62   128            122
# ℹ 34 more rows
…
